{
  "connection": "default",
  "collectionName": "books",
  "info": {
    "name": "book",
    "description": ""
  },
  "options": {
    "increments": true,
    "timestamps": [
      "created_at",
      "updated_at"
    ],
    "comment": ""
  },
  "attributes": {
    "name": {
      "type": "string"
    },
    "year": {
      "type": "string"
    },
    "pages": {
      "type": "integer"
    },
    "author": {
      "model": "author"
    }
  }
}